[
{
  "pk": 1,
  "model": "main.question",
  "fields": {
    "want_answers": [],
    "user_post": 3,
    "create_date": "2015-05-22T03:40:07.112Z",
    "edit_date": null,
    "title": "0",
    "tags": [],
    "reports": [],
    "content": "Are we ready for production server ?",
    "photos": [],
    "question_type": "normal",
    "unique_id": "QUnjMkbTmgXrfpccVP3qVxAn151"
  }
},
{
  "pk": 2,
  "model": "main.question",
  "fields": {
    "want_answers": [],
    "user_post": 3,
    "create_date": "2015-05-22T04:49:50.881Z",
    "edit_date": null,
    "title": "0",
    "tags": [],
    "reports": [],
    "content": "Can I ask question anytime in Univtop ?",
    "photos": [],
    "question_type": "normal",
    "unique_id": "QUWUVDqRwXitLuiJyUaGVAPc510"
  }
},
{
  "pk": 3,
  "model": "main.question",
  "fields": {
    "want_answers": [],
    "user_post": 3,
    "create_date": "2015-05-22T18:24:38.267Z",
    "edit_date": null,
    "title": "0",
    "tags": [],
    "reports": [],
    "content": "Can I ask long long long question ? ",
    "photos": [],
    "question_type": "normal",
    "unique_id": "QU2RTNRgPCeNRsYkKLQnZ9cE504"
  }
},
{
  "pk": 4,
  "model": "main.question",
  "fields": {
    "want_answers": [],
    "user_post": 3,
    "create_date": "2015-05-23T02:53:35.447Z",
    "edit_date": null,
    "title": "0",
    "tags": [],
    "reports": [],
    "content": "where can i see redis key ?",
    "photos": [],
    "question_type": "normal",
    "unique_id": "QUTLTTZ8HrzPvzkUHrA35TCi714"
  }
},
{
  "pk": 5,
  "model": "main.question",
  "fields": {
    "want_answers": [],
    "user_post": 3,
    "create_date": "2015-05-23T02:55:35.696Z",
    "edit_date": null,
    "title": "0",
    "tags": [],
    "reports": [],
    "content": "how can i say hi in italiano ? ",
    "photos": [],
    "question_type": "normal",
    "unique_id": "QUHupfXxFynf9bYPR3bHN6sf367"
  }
},
{
  "pk": 6,
  "model": "main.question",
  "fields": {
    "want_answers": [],
    "user_post": 6,
    "create_date": "2015-05-23T21:26:36.793Z",
    "edit_date": null,
    "title": "0",
    "tags": [],
    "reports": [],
    "content": "how can i receive scholarship ? ",
    "photos": [],
    "question_type": "normal",
    "unique_id": "QUrNqJHFoXqCCTxcoZandMkR648"
  }
},
{
  "pk": 7,
  "model": "main.question",
  "fields": {
    "want_answers": [],
    "user_post": 3,
    "create_date": "2015-05-25T07:32:14.879Z",
    "edit_date": null,
    "title": "0",
    "tags": [],
    "reports": [],
    "content": "can I see the last question ?",
    "photos": [],
    "question_type": "normal",
    "unique_id": "QU65otDQN3HNrPbsJq7vnU8G351"
  }
},
{
  "pk": 8,
  "model": "main.question",
  "fields": {
    "want_answers": [],
    "user_post": 3,
    "create_date": "2015-05-25T23:29:00.638Z",
    "edit_date": null,
    "title": "0",
    "tags": [],
    "reports": [],
    "content": "what should we do in memorial day ? ",
    "photos": [],
    "question_type": "normal",
    "unique_id": "QUfonuut8Jk2cPGrJKnP5KTR358"
  }
},
{
  "pk": 9,
  "model": "main.question",
  "fields": {
    "want_answers": [],
    "user_post": 3,
    "create_date": "2015-05-26T16:26:57.925Z",
    "edit_date": null,
    "title": "0",
    "tags": [
      1,
      2
    ],
    "reports": [],
    "content": "where can i have good online classes ? @unitedstates @california",
    "photos": [],
    "question_type": "normal",
    "unique_id": "QUTmWYyjiJ8hqVZ9TmTqg2Ts824"
  }
},
{
  "pk": 10,
  "model": "main.question",
  "fields": {
    "want_answers": [],
    "user_post": 3,
    "create_date": "2015-05-27T19:26:57.350Z",
    "edit_date": null,
    "title": "0",
    "tags": [
      3,
      4
    ],
    "reports": [],
    "content": "how can we keep fresh air ? @world @environment",
    "photos": [],
    "question_type": "normal",
    "unique_id": "QUBprVV8geVsxmhQm2TGEv6H761"
  }
},
{
  "pk": 11,
  "model": "main.question",
  "fields": {
    "want_answers": [],
    "user_post": 3,
    "create_date": "2015-05-27T21:21:38.572Z",
    "edit_date": null,
    "title": "0",
    "tags": [
      5,
      6,
      7,
      8,
      9,
      10,
      11,
      12
    ],
    "reports": [],
    "content": "what is your dream city ? @paris @rome @nyc @sanfrancisco @tokyo @barcelona @madrid @milan",
    "photos": [],
    "question_type": "normal",
    "unique_id": "QUFsW5FbrhV2xUCNTw9yWNNc772"
  }
},
{
  "pk": 12,
  "model": "main.question",
  "fields": {
    "want_answers": [],
    "user_post": 3,
    "create_date": "2015-05-28T06:58:09.275Z",
    "edit_date": null,
    "title": "0",
    "tags": [
      13,
      14,
      15
    ],
    "reports": [],
    "content": "how can I apply to tech companies ? @it @software @hardware",
    "photos": [],
    "question_type": "normal",
    "unique_id": "QUaVC45YC9dGBxKDvULkcaGk234"
  }
},
{
  "pk": 13,
  "model": "main.question",
  "fields": {
    "want_answers": [],
    "user_post": 4,
    "create_date": "2015-06-09T16:33:59.024Z",
    "edit_date": null,
    "title": "0",
    "tags": [],
    "reports": [],
    "content": "yi",
    "photos": [],
    "question_type": "normal",
    "unique_id": "QUPRJ3JS5G3UcDkvDx9AtLNp339"
  }
},
{
  "pk": 14,
  "model": "main.question",
  "fields": {
    "want_answers": [],
    "user_post": 3,
    "create_date": "2015-06-12T05:28:38.898Z",
    "edit_date": null,
    "title": "0",
    "tags": [],
    "reports": [],
    "content": "what should I do for making ice cream ?",
    "photos": [],
    "question_type": "normal",
    "unique_id": "QUzo3keKzyCawVULadUYEXWB581"
  }
},
{
  "pk": 15,
  "model": "main.question",
  "fields": {
    "want_answers": [],
    "user_post": 4,
    "create_date": "2015-06-14T01:00:49.448Z",
    "edit_date": null,
    "title": "0",
    "tags": [],
    "reports": [],
    "content": "Nxksjxixjxoxhxododbxidjxixjdbjsidbxxjxixbxjxbsisdjxjbxjdixxjbxjxoxjxbxididjsbdjsisisbxjxodojsbdjidjsbdhxidbdhissjbdb",
    "photos": [],
    "question_type": "normal",
    "unique_id": "QUUF9DrCsPcoST8CTZ9gdeQZ302"
  }
},
{
  "pk": 16,
  "model": "main.question",
  "fields": {
    "want_answers": [],
    "user_post": 4,
    "create_date": "2015-06-14T03:43:54.281Z",
    "edit_date": null,
    "title": "0",
    "tags": [],
    "reports": [],
    "content": "Question details ...",
    "photos": [],
    "question_type": "normal",
    "unique_id": "QUJws2xDg9qn6ZYsr7wbyNFG893"
  }
},
{
  "pk": 17,
  "model": "main.question",
  "fields": {
    "want_answers": [],
    "user_post": 3,
    "create_date": "2015-06-14T04:01:38.919Z",
    "edit_date": null,
    "title": "0",
    "tags": [
      1,
      2
    ],
    "reports": [],
    "content": "how can I see the world ?",
    "photos": [],
    "question_type": "normal",
    "unique_id": "QUQNvGy5qLkCuUAZiY9eb3Lh312"
  }
},
{
  "pk": 18,
  "model": "main.question",
  "fields": {
    "want_answers": [],
    "user_post": 3,
    "create_date": "2015-06-19T13:15:39.028Z",
    "edit_date": null,
    "title": "how to survive to wife",
    "tags": [],
    "reports": [],
    "content": "good",
    "photos": [],
    "question_type": "normal",
    "unique_id": "QU9z3RT6TSNxA37FvBMBPXPp073"
  }
}
]